…
</div>
</div>

The main way we'll use point data in this course is to describe where species occur. There are many large online data aggregators of species occurrence records; GBIF is surely the biggest. So let's down load some records for garlic mustard (Alliaria petiolata).


```r
pres=spocc::occ('Alliaria petiolata',from='gbif',limit=500)$gbif # this can take a sec
head(pres$data)
```

```
## $Alliaria_petiolata
## # A tibble: 500 x 99
##    name  longitude latitude issues prov     key datasetKey publishingOrgKey
##    <chr>     <dbl>    <dbl> <chr>  <chr>  <int> <chr>      <chr>           
##  1 Alli…     -74.5     40.6 cdrou… gbif  1.99e9 50c9509d-… 28eb1a3f-1c15-4…
##  2 Alli…     -73.9     40.8 cdrou… gbif  1.99e9 50c9509d-… 28eb1a3f-1c15-4…
##  3 Alli…     -89.7     39.7 cdrou… gbif  1.99e9 50c9509d-… 28eb1a3f-1c15-4…
##  4 Alli…     -87.9     41.7 cdrou… gbif  1.99e9 50c9509d-… 28eb1a3f-1c15-4…
##  5 Alli…     -90.3     38.7 cdrou… gbif  1.99e9 50c9509d-… 28eb1a3f-1c15-4…
##  6 Alli…     -79.4     43.7 gass84 gbif  1.99e9 50c9509d-… 28eb1a3f-1c15-4…
##  7 Alli…     -76.6     39.6 cdrou… gbif  1.99e9 50c9509d-… 28eb1a3f-1c15-4…
##  8 Alli…     -73.8     40.6 cdrou… gbif  1.99e9 50c9509d-… 28eb1a3f-1c15-4…
##  9 Alli…     -79.8     43.2 gass84 gbif  1.99e9 50c9509d-… 28eb1a3f-1c15-4…
## 10 Alli…     -73.9     40.8 cdrou… gbif  1.99e9 50c9509d-… 28eb1a3f-1c15-4…
## # … with 490 more rows, and 91 more variables: networkKeys <list>,
## #   installationKey <chr>, publishingCountry <chr>, protocol <chr>,
## #   lastCrawled <chr>, lastParsed <chr>, crawlId <int>,
## #   basisOfRecord <chr>, taxonKey <int>, kingdomKey <int>,
## #   phylumKey <int>, classKey <int>, orderKey <int>, familyKey <int>,
## #   genusKey <int>, acceptedTaxonKey <int>, scientificName <chr>,
## #   acceptedScientificName <chr>, kingdom <chr>, phylum <chr>,
## #   order <chr>, family <chr>, genus <chr>, genericName <chr>,
## #   specificEpithet <chr>, taxonRank <chr>, taxonomicStatus <chr>,
…
